{
  "files": {
    "main.css": "/static/css/main.01674917.css",
    "main.js": "/static/js/main.4df35869.js",
    "static/js/787.b9055325.chunk.js": "/static/js/787.b9055325.chunk.js",
    "static/media/HR.jpg": "/static/media/HR.1a954a0926c086270d8e.jpg",
    "static/media/Profile_image.png": "/static/media/Profile_image.47abd0861e2eec829e50.png",
    "static/media/logo1.png": "/static/media/logo1.571179ac01e739018622.png",
    "index.html": "/index.html",
    "main.01674917.css.map": "/static/css/main.01674917.css.map",
    "main.4df35869.js.map": "/static/js/main.4df35869.js.map",
    "787.b9055325.chunk.js.map": "/static/js/787.b9055325.chunk.js.map"
  },
  "entrypoints": [
    "static/css/main.01674917.css",
    "static/js/main.4df35869.js"
  ]
}